{
    "openapi": "3.0.0",
    "info": {
        "title": "L5 OpenApi",
        "description": "L5 Swagger OpenApi description",
        "contact": {
            "email": "nkochoradze@napr.gov.ge"
        },
        "version": "1.0.0"
    },
    "paths": {
        "/api/search": {
            "post": {
                "tags": [
                    "Search"
                ],
                "summary": "Super App Searcher",
                "description": "Returns Search Result",
                "operationId": "search",
                "requestBody": {
                    "required": true,
                    "content": {
                        "application/x-www-form-urlencoded": {
                            "schema": {
                                "properties": {
                                    "from_n": {
                                        "type": "integer"
                                    },
                                    "ret_count": {
                                        "type": "integer"
                                    },
                                    "pletterid": {
                                        "type": "integer"
                                    },
                                    "prandomid": {
                                        "type": "string"
                                    },
                                    "fdate": {
                                        "type": "string"
                                    },
                                    "tdate": {
                                        "type": "string"
                                    },
                                    "psearch": {
                                        "type": "string"
                                    },
                                    "ptag": {
                                        "type": "string"
                                    }
                                },
                                "type": "object"
                            }
                        }
                    }
                },
                "responses": {
                    "200": {
                        "description": "successful operation",
                        "content": {
                            "application/json": {
                                "schema": {
                                    "properties": {
                                        "LETTERS_ID": {
                                            "type": "integer"
                                        },
                                        "RANDOMID": {
                                            "type": "integer"
                                        },
                                        "LETTERID": {
                                            "type": "integer"
                                        },
                                        "LETTERTEMPLATEID": {
                                            "type": "integer"
                                        },
                                        "SENDER": {
                                            "type": "string"
                                        },
                                        "REGISTRATIONDATE": {
                                            "type": "string"
                                        },
                                        "REGISTRATIONNUMBER": {
                                            "type": "string"
                                        },
                                        "ORIGINALDATE": {
                                            "type": "string"
                                        },
                                        "ORIGINALNUMBER": {
                                            "type": "string"
                                        },
                                        "NBSPATH": {
                                            "type": "string"
                                        }
                                    },
                                    "type": "object"
                                }
                            }
                        }
                    },
                    "400": {
                        "description": "Bad request"
                    }
                }
            }
        },
        "/api/getTags": {
            "post": {
                "tags": [
                    "getTags"
                ],
                "summary": "Get Tags",
                "description": "Returns Tags",
                "operationId": "getTags",
                "requestBody": {
                    "required": true,
                    "content": {
                        "application/x-www-form-urlencoded": {
                            "schema": {
                                "properties": {
                                    "pletters_id": {
                                        "type": "integer"
                                    }
                                },
                                "type": "object"
                            }
                        }
                    }
                },
                "responses": {
                    "200": {
                        "description": "successful operation",
                        "content": {
                            "application/json": {
                                "schema": {
                                    "properties": {
                                        "ID": {
                                            "type": "integer"
                                        },
                                        "TEXT": {
                                            "type": "string"
                                        }
                                    },
                                    "type": "object"
                                }
                            }
                        }
                    },
                    "400": {
                        "description": "Bad request"
                    }
                }
            }
        }
    },
    "security": [
        []
    ]
}